{
    "apps": [
        {
            "name": "fms-unit-service-2",
            "cwd": ".",
            "script": "npm",
            "args": "run start:prod",
	    "env": {
                "SERVICE_PORT": "8889"
            }
        }
    ]
}

