{"date":"2019-10-04 23:15:30","hour_meter":{"unit":"seconds","value":0},"distance":{"unit":"m","value":0},"payload":{"unit":"ton","value":16.97},"fuel_rate":{"unit":"liter/hour","value":0},"temperature":{"unit":"C","value":0},"gps":{"lon":0,"z":0,"lat":0},"speed":{"unit":"km/hour","value":0}}
{"date":"2019-10-04 23:20:05","hour_meter":{"unit":"seconds","value":0},"distance":{"unit":"m","value":0},"payload":{"unit":"ton","value":15.51},"fuel_rate":{"unit":"liter/hour","value":0},"temperature":{"unit":"C","value":0},"gps":{"lon":0,"z":0,"lat":0},"speed":{"unit":"km/hour","value":0}}
{"date":"2019-10-09 11:40:49","hour_meter":{"unit":"seconds","value":0},"distance":{"unit":"m","value":0},"payload":{"unit":"ton","value":15.22},"fuel_rate":{"unit":"liter","value":0},"temperature":{"unit":"C","value":0},"gps":{"lon":0,"z":0,"lat":0},"speed":{"unit":"km/hour","GyroX":0,"GyroZ":0,"GyroY":0,"value":0}}
{"date":"2019-10-30 04:14:20","hour_meter":{"unit":"seconds","value":0},"distance":{"unit":"m","value":0},"payload":{"unit":"ton","value":16.71},"fuel_rate":{"unit":"liter","value":0},"temperature":{"unit":"C","value":0},"gps":{"lon":0,"z":0,"lat":0},"speed":{"unit":"km/hour","GyroX":0,"GyroZ":0,"GyroY":0,"value":0}}
